particle_system EnemyExplosion
{
	material Particles/Flare.001
	particle_width 2
	particle_height 2
	quota 1000
	cull_each false
	sorted false
	local_space false
	iteration_interval 0.0
	nonvisible_update_timeout 0.0
	billboard_type point
	billboard_origin center
	billboard_rotation_type texcoord
	point_rendering false
	accurate_facing false

	emitter Point
	{
		position 0.0 0.0 0.0
		direction 1.0 0.0 0.0
		angle 180
		emission_rate 21.05
		velocity_min 4
		velocity_max 4
		time_to_live_min 0.2
		time_to_live_max 0.2
		duration_min 0.2
		duration_max 0.3
		repeat_delay_min 0
		repeat_delay_max 0
		colour_range_start 0.678431 0.678431 0.678431 1
		colour_range_end 0.701961 0.701961 0.701961 1
	}
}
