particle_system Laser
{
	material Particles/Laser
	particle_width 0.04
	particle_height 0.04
	quota 20
	cull_each false
	sorted false
	local_space false
	iteration_interval 0.0
	nonvisible_update_timeout 0.0
	billboard_type point
	billboard_origin center
	billboard_rotation_type texcoord
	point_rendering false
	accurate_facing false

	emitter Point
	{
		position 0.0 0.0 0.0
		direction 1.0 0.0 0.0
		angle 180
		emission_rate 10
		velocity_min 0.0
		velocity_max 0.2
		time_to_live_min 0.1
		time_to_live_max 0.3
		duration_min 0.0
		duration_max 0.0
		repeat_delay_min 1
		repeat_delay_max 1
		colour_range_start 1 1 1 1
		colour_range_end 1 1 1 0
	}

	affector Scaler
	{
		rate -0.1
	}
}
