material Particles/Sun.000
{
	technique
	{
		pass
		{
			lighting off
			depth_write off
			scene_blend add

			texture_unit
			{
				texture Resources/Textures/Sun.000.png
			}
		}
	}
}
