// Window genrated by blender2ogre 0.6.0

material Window 
{
    receive_shadows on 

    technique
    {
        pass Window
        {
            ambient 0.033100809901952744 0.033100809901952744 0.033100809901952744 1.0
            diffuse 0.026480648316154598 0.026480648316154598 0.026480648316154598 1.0
            specular 0.15000000596046448 0.15000000596046448 0.15000000596046448 1.0 25.0
            emissive 0.0 0.0 0.0 1.0

            alpha_to_coverage off
            colour_write on
            cull_hardware clockwise
            depth_check on
            depth_func less_equal
            depth_write on
            illumination_stage 
            light_clip_planes off
            light_scissor off
            lighting on
            normalise_normals off
            polygon_mode solid
            scene_blend one zero
            scene_blend_op add
            shading gouraud
            transparent_sorting on

        }
    }
}
